<mxfile host="app.diagrams.net" modified="2022-10-10T02:50:41.758Z" agent="5.0 (Windows NT 10.0; Win64; x64) AppleWebKit/537.36 (KHTML, like Gecko) Chrome/106.0.0.0 Safari/537.36" etag="fSLoQ5as7ekYBq1wtLEn" version="20.4.0" type="gitlab">
  <diagram id="vTMRY9RlEmyOahIam8UX" name="Página-1">
    <mxGraphModel dx="868" dy="1643" grid="1" gridSize="10" guides="1" tooltips="1" connect="1" arrows="1" fold="1" page="1" pageScale="1" pageWidth="827" pageHeight="1169" background="#F1FAEE" math="0" shadow="0">
      <root>
        <mxCell id="0" />
        <mxCell id="1" parent="0" />
        <mxCell id="hqroxCfqQ5jhrxjK2bpC-2" value="Gerente" style="rounded=0;whiteSpace=wrap;html=1;fillColor=#A8DADC;strokeColor=#457B9D;fontColor=#1D3557;" parent="1" vertex="1">
          <mxGeometry x="340" y="230" width="120" height="60" as="geometry" />
        </mxCell>
        <mxCell id="hqroxCfqQ5jhrxjK2bpC-3" value="Vendedor" style="rounded=0;whiteSpace=wrap;html=1;fillColor=#A8DADC;strokeColor=#457B9D;fontColor=#1D3557;" parent="1" vertex="1">
          <mxGeometry x="470" y="230" width="120" height="60" as="geometry" />
        </mxCell>
        <mxCell id="hqroxCfqQ5jhrxjK2bpC-4" value="" style="endArrow=classic;html=1;rounded=0;exitX=0.5;exitY=0;exitDx=0;exitDy=0;entryX=0.5;entryY=1;entryDx=0;entryDy=0;strokeColor=#457B9D;fontColor=#1D3557;labelBackgroundColor=#F1FAEE;" parent="1" source="hqroxCfqQ5jhrxjK2bpC-2" edge="1">
          <mxGeometry width="50" height="50" relative="1" as="geometry">
            <mxPoint x="390" y="270" as="sourcePoint" />
            <mxPoint x="400" y="180" as="targetPoint" />
          </mxGeometry>
        </mxCell>
        <mxCell id="hqroxCfqQ5jhrxjK2bpC-6" value="" style="endArrow=classic;html=1;rounded=0;exitX=0.383;exitY=-0.017;exitDx=0;exitDy=0;exitPerimeter=0;entryX=0.75;entryY=1;entryDx=0;entryDy=0;strokeColor=#457B9D;fontStyle=1;fontColor=#1D3557;labelBackgroundColor=#F1FAEE;" parent="1" source="hqroxCfqQ5jhrxjK2bpC-3" edge="1">
          <mxGeometry width="50" height="50" relative="1" as="geometry">
            <mxPoint x="390" y="270" as="sourcePoint" />
            <mxPoint x="430" y="180" as="targetPoint" />
            <Array as="points" />
          </mxGeometry>
        </mxCell>
        <mxCell id="hqroxCfqQ5jhrxjK2bpC-8" value="Funcionario" style="swimlane;fillColor=#A8DADC;strokeColor=#457B9D;fontColor=#1D3557;" parent="1" vertex="1">
          <mxGeometry x="340" y="40" width="160" height="140" as="geometry" />
        </mxCell>
        <mxCell id="hqroxCfqQ5jhrxjK2bpC-9" value="&amp;lt;&amp;lt;abstract&amp;gt;&amp;gt;&lt;br style=&quot;&quot;&gt;&lt;br style=&quot;&quot;&gt;&lt;span style=&quot;&quot;&gt;double salario;&lt;/span&gt;&lt;br style=&quot;&quot;&gt;&lt;span style=&quot;&quot;&gt;&lt;br&gt;&lt;/span&gt;" style="text;html=1;align=center;verticalAlign=middle;resizable=0;points=[];autosize=1;fontColor=#1D3557;" parent="hqroxCfqQ5jhrxjK2bpC-8" vertex="1">
          <mxGeometry x="30" y="35" width="100" height="70" as="geometry" />
        </mxCell>
        <mxCell id="hqroxCfqQ5jhrxjK2bpC-13" value="Cliente" style="rounded=0;whiteSpace=wrap;html=1;fillColor=#A8DADC;strokeColor=#457B9D;fontColor=#1D3557;" parent="1" vertex="1">
          <mxGeometry x="90" y="230" width="120" height="60" as="geometry" />
        </mxCell>
        <mxCell id="hqroxCfqQ5jhrxjK2bpC-14" value="Autentica&lt;br&gt;boolean autentica();" style="rounded=0;whiteSpace=wrap;html=1;" parent="1" vertex="1">
          <mxGeometry x="170" y="70" width="120" height="60" as="geometry" />
        </mxCell>
        <mxCell id="hqroxCfqQ5jhrxjK2bpC-15" value="" style="endArrow=classic;html=1;rounded=0;strokeColor=#b85450;fontColor=#1D3557;labelBackgroundColor=#F1FAEE;fillColor=#f8cecc;" parent="1" edge="1">
          <mxGeometry width="50" height="50" relative="1" as="geometry">
            <mxPoint x="150" y="230" as="sourcePoint" />
            <mxPoint x="190" y="130" as="targetPoint" />
            <Array as="points">
              <mxPoint x="150" y="230" />
              <mxPoint x="190" y="130" />
            </Array>
          </mxGeometry>
        </mxCell>
        <mxCell id="hqroxCfqQ5jhrxjK2bpC-17" value="" style="endArrow=none;html=1;rounded=0;exitX=1;exitY=0.5;exitDx=0;exitDy=0;strokeColor=#457B9D;fontColor=#1D3557;labelBackgroundColor=#F1FAEE;" parent="1" source="hqroxCfqQ5jhrxjK2bpC-14" edge="1">
          <mxGeometry width="50" height="50" relative="1" as="geometry">
            <mxPoint x="260" y="110" as="sourcePoint" />
            <mxPoint x="340" y="100" as="targetPoint" />
          </mxGeometry>
        </mxCell>
        <mxCell id="irj1YLjBQdVymL_pECmJ-3" value="Pessoa" style="swimlane;fillColor=#A8DADC;strokeColor=#457B9D;fontColor=#1D3557;" vertex="1" parent="1">
          <mxGeometry x="200" y="-200" width="200" height="200" as="geometry" />
        </mxCell>
        <mxCell id="irj1YLjBQdVymL_pECmJ-4" value="private String nome;&lt;br&gt;private String cpf;" style="text;html=1;align=center;verticalAlign=middle;resizable=0;points=[];autosize=1;strokeColor=none;fillColor=none;fontColor=#1D3557;" vertex="1" parent="irj1YLjBQdVymL_pECmJ-3">
          <mxGeometry x="35" y="90" width="130" height="40" as="geometry" />
        </mxCell>
        <mxCell id="irj1YLjBQdVymL_pECmJ-5" value="Fotografo" style="rounded=0;whiteSpace=wrap;html=1;strokeColor=#457B9D;fontColor=#1D3557;fillColor=#A8DADC;" vertex="1" parent="1">
          <mxGeometry x="630" y="230" width="120" height="60" as="geometry" />
        </mxCell>
        <mxCell id="irj1YLjBQdVymL_pECmJ-6" value="" style="endArrow=classic;html=1;rounded=0;exitX=0.383;exitY=-0.017;exitDx=0;exitDy=0;exitPerimeter=0;entryX=1;entryY=0.75;entryDx=0;entryDy=0;strokeColor=#457B9D;fontColor=#1D3557;labelBackgroundColor=#F1FAEE;" edge="1" parent="1" target="hqroxCfqQ5jhrxjK2bpC-8">
          <mxGeometry width="50" height="50" relative="1" as="geometry">
            <mxPoint x="695.96" y="230.00000000000003" as="sourcePoint" />
            <mxPoint x="610" y="181.02" as="targetPoint" />
            <Array as="points" />
          </mxGeometry>
        </mxCell>
        <mxCell id="irj1YLjBQdVymL_pECmJ-7" value="" style="endArrow=classic;html=1;rounded=0;exitX=0.688;exitY=-0.014;exitDx=0;exitDy=0;exitPerimeter=0;strokeColor=#457B9D;fontColor=#1D3557;labelBackgroundColor=#F1FAEE;" edge="1" parent="1" source="hqroxCfqQ5jhrxjK2bpC-8">
          <mxGeometry width="50" height="50" relative="1" as="geometry">
            <mxPoint x="705.96" y="240" as="sourcePoint" />
            <mxPoint x="400" y="-80" as="targetPoint" />
            <Array as="points" />
          </mxGeometry>
        </mxCell>
        <mxCell id="irj1YLjBQdVymL_pECmJ-8" value="" style="endArrow=classic;html=1;rounded=0;exitX=0.25;exitY=0;exitDx=0;exitDy=0;strokeColor=#457B9D;fontColor=#1D3557;labelBackgroundColor=#F1FAEE;" edge="1" parent="1" source="hqroxCfqQ5jhrxjK2bpC-13">
          <mxGeometry width="50" height="50" relative="1" as="geometry">
            <mxPoint x="200" y="165" as="sourcePoint" />
            <mxPoint x="200" y="-90" as="targetPoint" />
            <Array as="points" />
          </mxGeometry>
        </mxCell>
        <mxCell id="irj1YLjBQdVymL_pECmJ-9" value="" style="endArrow=classic;html=1;rounded=0;entryX=0.7;entryY=1.017;entryDx=0;entryDy=0;strokeColor=#b85450;fontColor=#1D3557;labelBackgroundColor=#F1FAEE;entryPerimeter=0;fillColor=#f8cecc;" edge="1" parent="1" target="hqroxCfqQ5jhrxjK2bpC-14">
          <mxGeometry width="50" height="50" relative="1" as="geometry">
            <mxPoint x="400" y="230" as="sourcePoint" />
            <mxPoint x="410" y="190" as="targetPoint" />
          </mxGeometry>
        </mxCell>
        <mxCell id="irj1YLjBQdVymL_pECmJ-10" value="" style="endArrow=classic;html=1;rounded=0;entryX=0.7;entryY=1.017;entryDx=0;entryDy=0;strokeColor=#b85450;fontColor=#1D3557;labelBackgroundColor=#F1FAEE;entryPerimeter=0;exitX=0.342;exitY=0.033;exitDx=0;exitDy=0;exitPerimeter=0;fillColor=#f8cecc;" edge="1" parent="1" source="hqroxCfqQ5jhrxjK2bpC-3">
          <mxGeometry width="50" height="50" relative="1" as="geometry">
            <mxPoint x="470" y="218.98" as="sourcePoint" />
            <mxPoint x="224" y="129.99999999999997" as="targetPoint" />
            <Array as="points">
              <mxPoint x="250" y="190" />
            </Array>
          </mxGeometry>
        </mxCell>
      </root>
    </mxGraphModel>
  </diagram>
</mxfile>
